[
  {
    "name": "${task_name}",
    "image": "${image}",
    "portMappings": [
      {
        "containerPort": ${container_port},
        "hostPort": 0
      }
    ],
    "memory": 300,
    "networkMode": "awsvpc",
    "logConfiguration": {
      "logDriver": "awslogs",
      "options": {
        "awslogs-group": "${log_group}",
        "awslogs-region": "${log_aws_region}",
        "awslogs-stream-prefix": "web"
      }
    },
    "environment": ${container_environment_vars}
  }
]